Classic TEST API credentials

Username:
davinder_gne-facilitator_api1.yahoo.com

Password:
1399819160

Signature:
AFcWxV21C7fd0v3bYYYRCpSSRl31AHoMKmS4MMTbIVR.jjMyYXTrMrfN

Testmode:
true

----------------------
Credit card

Credit card number:
4032039446860258
Credit card type:
Visa
Expiration date:
7/2019

----------------------------
sandbox.paypal.com

davinder_gne-facilitator@yahoo.com
davinder